<?xml version="1.0" standalone="no"?>
<!DOCTYPE svg PUBLIC "-//W3C//DTD SVG 1.1//EN" "http://www.w3.org/Graphics/SVG/1.1/DTD/svg11.dtd" >
<svg xmlns="http://www.w3.org/2000/svg">
<metadata>Generated by IcoMoon</metadata>
<defs>
<font id="icomoon" horiz-adv-x="1024">
<font-face units-per-em="1024" ascent="960" descent="-64" />
<missing-glyph horiz-adv-x="1024" />
<glyph unicode="&#x20;" horiz-adv-x="512" d="" />
<glyph unicode="&#xe900;" glyph-name="m-location" horiz-adv-x="712" d="M204.8 930.029c-72.429-33.717-142.361-101.151-174.829-167.337-12.488-26.224-24.976-84.917-27.473-133.62-3.746-76.176 0-102.4 33.717-187.317 79.922-204.8 270.985-505.756 322.185-505.756 34.966 0 179.824 214.79 275.98 412.098 64.937 131.122 71.18 152.351 76.176 241.015 4.995 122.38-17.483 187.317-93.659 264.741-77.424 79.922-139.863 106.146-254.751 106.146-72.429 0-107.395-7.493-157.346-29.971zM422.088 857.6c78.673-19.98 166.088-106.146 188.566-187.317 17.483-59.941 12.488-122.38-13.737-179.824-17.483-38.712-39.961-37.463-71.18 2.498-27.473 34.966-41.21 81.171-59.941 192.312l-9.99 68.683-51.2-84.917-52.449-86.166-59.941 108.644c-56.195 98.654-63.688 107.395-94.907 102.4-19.98-2.498-34.966-2.498-34.966 0 0 6.244 103.649 56.195 137.366 67.434 44.956 13.737 57.444 12.488 122.38-3.746zM191.063 722.732c41.21-1.249 47.454-19.98 33.717-103.649-6.244-44.956-16.234-91.161-19.98-101.151-4.995-13.737 0-19.98 18.732-19.98 21.229 0 26.224 7.493 27.473 41.21 1.249 21.229 4.995 52.449 8.741 68.683 7.493 24.976 12.488 21.229 43.707-34.966 19.98-33.717 38.712-62.439 43.707-62.439s24.976 29.971 46.205 66.185l36.215 64.937 9.99-54.946c11.239-66.185 38.712-109.893 79.922-128.624 38.712-17.483 37.463-26.224-7.493-64.937-101.151-83.668-236.020-72.429-338.42 29.971-86.166 86.166-104.898 188.566-51.2 293.463 24.976 49.951 44.956 62.439 49.951 31.22 2.498-13.737 11.239-24.976 18.732-24.976z" />
</font></defs></svg>